{
    "_id":"English",
    "group":"Language",

    "STARBOARD_THRESHOLD_SUCCESS": "Successfully created a treshold for group GROUP_NAME with at star count STAR_THRESHOLD!",
    "STARBOARD_THRESHOLD_ERROR": "Syntax: ```PREFIXAddstarboardthreshold [Stars] [Role]```",

    "CONNECT_ADD": "Streamer STREAMER_NAME was successfully added!",
    "CONNECT_REMOVE": "Streamer STREAMER_NAME was successfully removed!",
    "CONNECT_ERROR": "Please enter a streamer.",

    "CONNECTIONS_HEADER": "Here's a list of all streamers:",
    "CONNECTIONS_VISIBLE": "Visible in embed",
    "CONNECTIONS_IS_NOT_VISIBLE": "Not visible in embed",

    "SEQUENCE_ERROR":"Syntax: ```PREFIXSequence add [Role to remove] [Role to add] [Emoji (exclusively unicode)] (Message ID)```or```PREFIXSequence remove (Message ID)```(Message ID) is optional, uses last message if omitted.",

    "SET_GUILD_SETTING_SUCCESS": "The GuildSetting SETTING was set to VALUE!",
    "SET_GUILD_SETTING_ERROR": "Syntax: ```PREFIXSetguildsetting [Setting] [Wert]``` Possible Settings:\nPOSSIBLE_SETTINGS",

    "TOGGLE_STREAMER_VISIBLE": "Streamer STREAMER_NAME is now visible in the embed!",
    "TOGGLE_STREAMER_INVISIBLE": "Streamer STREAMER_NAME isn't visible in the embed anymore.",
    "TOGGLE_STREAMER_ERROR": "Please enter a streamer.",

    "CREATE_GIVEAWAY_NOT_ENOUGH_XP": "You don't have enough XP to create this giveaway.",
    "CREATE_GIVEAWAY_END_TIME": "End Time",
    "CREATE_GIVEAWAY_XP_REWARD": "XP-Reward",
    "CREATE_GIVEAWAY_NO_GIVEAWAY_CHANNEL": "This server doesn't have a TYPE Giveaway Channel. If you're an admin, you can set one with `PREFIXSetadmingiveaway`!",
    "CREATE_GIVEAWAY_ERROR": "Syntax: ```PREFIXCreategiveaway [Time] [Emoji] [XP] [Giveaway-Text]```Time: How long the giveaway is running for. Examples: 2h, 5m, 7d\nEmoji: The Reaction-**unicode** Emoji used to join.\nXP: how much XP the winner receives. 0 for nothing. (May be negative :wink:)",

    "GAMBLE_NOT_ENOUGH_XP": "You don't have enough XP.",
    "GAMBLE_INVALID_CHANNEL": "USER_MENTION You can only gamble in the channel GAMBLE_CHANNEL.",
    "GAMBLE_BELOW_THRESHOLD": "USER_MENTION Your stake needs to be above THRESHOLD XP!",
    "GAMBLE_FIVE_TIMES": "Today is USER_MENTION's lucky day! They quintupled their stake of AMOUNT!",
    "GAMBLE_THREE_TIMES": "Wow! USER_MENTION just tripled their stake of AMOUNT!",
    "GAMBLE_DOUBLED": "Nice! USER_MENTION doubled their stake of AMOUNT",
    "GAMBLE_LOSS": "USER_MENTION just lost their stake of AMOUNT.",
    "GAMBLE_ERROR": "Please enter your stake.",

    "PING_RESPONSE": "'MURICA",
    "PING_ERROR": "ok ",

    "STATS_TOO_MANY_PEOPLE": "Please ping less than 4 people.",
    "STATS_XP": "XP",
    "STATS_LEVEL": "Lvl.",
    "STATS_STARBOARD_MESSAGES": "Messages in starboard",

    "GIVEAWAY_EMBED_WIN_XP": "USER_MENTION won the giveaway and received XP_REWARD XP!",
    "GIVEAWAY_EMBED_WIN_NO_XP": "USER_MENTION won the giveaway! The moderators will get you your reward.",
    "GIVEAWAY_CONGRATULATION": "Congratulations USER_MENTION!",

    "TWITCH_LIVE": "ANNOUNCEMENT_ROLE STREAMER_NAME is now live! LINK",
    "TWITCH_PLAYING": "Playing",
    "TWITCH_STREAM_TITLE": "Stream Title",
    "TWITCH_FOLLOWERS": "Followers",
    "TWITCH_TOTAL_VIEWS": "Total Views",

    "EXP_LEVELUP": "leveled up to Level LEVEL!",

    "STARBOARD_MESSAGE_LINK": "Message-Link",
    "STARBOARD_MESSAGE_CHANNEL": "Message-Channel",
    "STARBOARD_MESSAGE_REACTIONS": "Reactions",
    "STARBOARD_IMAGE_ATTACHMENT": "Image-Attachment",

    "WELCOME_INITIAL_MESSAGE": "Hey! Before you join GUILD_NAME, you should read the rules! You can click the reaction here once you're done.",
    "WELCOME_FINAL_MESSAGE": "Exactly! Have fun on GUILD_NAME!",
    "WELCOME_ERROR": "I'm sorry, but that's wrong.",
    "WELCOME_SOLVE_CAPTCHA":"Alright! To get your role you just need to solve the equation below!",

    "MEMBER_COUNT":"Member Count: MEMBER_COUNT",

    "LEAVE_NOTIFICATION":"Member USER_NAME left the guild! :wave:",

    "INFO_CARD": "Info-Card for NAME",
    "INFO_CREATION_DATE": "Creation Date",
    "INFO_JOIN_DATE": "Join Date",
    "INFO_MEMBERS": "Members",
    "INFO_BANS": "Bans",

    "TICKET_ERROR": "This guild or bot instance has not been set up properly in order to use this command.",

    "COUNT_AMOUNT":"There are VALUE Members in this channel!",

    "KICK_LIST": "The following Member(s) were kicked: KICKED_MEMBERS",
    "KICK_INVALID":"Please ping at least one member to be kicked.",

    "BAN_LIST": "The following Member(s) were banned: BAN_MEMBERS",
    "BAN_INVALID":"Please ping at least one member to be banned.",

    "WORD_FILTER":"Hey USER_MENTION! Please don't use that word.",

    "WORDCTL_LIST":"Here's a list of all blacklisted words",
    "WORDCTL_ADDED":"The word VALUE was added to the blacklist!",
    "WORDCTL_REMOVED":"The word VALUE was removed from the blacklist!",
    "WORDCTL_ERROR":"Syntax: ```PREFIXWordctl [add/remove/list] [Word]```",

    "TWITTER_NEW_TWEET":"USER has tweeted!",
    "TWITTER_VIDEO":"This tweet contains a video. Open in browser to view."
    
}